%YAML 1.1
%TAG !u! tag:unity3d.com,2011:
--- !u!114 &11400000
MonoBehaviour:
  m_ObjectHideFlags: 0
  m_PrefabParentObject: {fileID: 0}
  m_PrefabInternal: {fileID: 0}
  m_GameObject: {fileID: 0}
  m_Enabled: 1
  m_EditorHideFlags: 0
  m_Script: {fileID: 11500000, guid: 53474bdf87f504b10a13df3970b30427, type: 3}
  m_Name: ChaseScanner
  m_EditorClassIdentifier: 
  actions:
  - {fileID: 11400000, guid: 5211ca6d097844216b1cac9c42d2f22e, type: 2}
  - {fileID: 11400000, guid: a748a81f4e7034e80b57fce3f835ff9d, type: 2}
  transitions:
  - decision: {fileID: 11400000, guid: 6f643257f41284c52b25f291309b6b8c, type: 2}
    trueState: {fileID: 11400000, guid: 877fe5d5f14794fc0b0c5f8dcf873f50, type: 2}
    falseState: {fileID: 11400000, guid: 771949fa6c6804de58d511974cc3e9e8, type: 2}
  sceneGizmoColor: {r: 0.9339623, g: 0, b: 0, a: 1}
