%YAML 1.1
%TAG !u! tag:unity3d.com,2011:
--- !u!114 &11400000
MonoBehaviour:
  m_ObjectHideFlags: 0
  m_PrefabParentObject: {fileID: 0}
  m_PrefabInternal: {fileID: 0}
  m_GameObject: {fileID: 0}
  m_Enabled: 1
  m_EditorHideFlags: 0
  m_Script: {fileID: 11500000, guid: 53474bdf87f504b10a13df3970b30427, type: 3}
  m_Name: PatrolScanner
  m_EditorClassIdentifier: 
  actions:
  - {fileID: 11400000, guid: b4e3c27c3e7d14fa48f4df7d48b26ec1, type: 2}
  transitions:
  - decision: {fileID: 11400000, guid: 6f643257f41284c52b25f291309b6b8c, type: 2}
    trueState: {fileID: 11400000, guid: 0df1e770c9c4b4f26b5d809160b71126, type: 2}
    falseState: {fileID: 11400000, guid: 877fe5d5f14794fc0b0c5f8dcf873f50, type: 2}
  sceneGizmoColor: {r: 0.3354694, g: 0.9528302, b: 0.20225172, a: 1}
